…
- The proportion is 0.377.

``` r
reformat_nyc_subway = nyc_subway %>% 
  pivot_longer(
    cols = route1:route5,
    names_to = "route_number",
    values_to = "route_name",
    values_drop_na = TRUE
  )

reformat_nyc_subway
```

    ## # A tibble: 3,941 × 10
    ##    line     station_name station_latitude station_longitude entry vending
    ##    <chr>    <chr>                   <dbl>             <dbl> <lgl> <chr>  
    ##  1 4 Avenue 25th St                  40.7             -74.0 TRUE  YES    
    ##  2 4 Avenue 25th St                  40.7             -74.0 TRUE  YES    
    ##  3 4 Avenue 36th St                  40.7             -74.0 TRUE  YES    
    ##  4 4 Avenue 36th St                  40.7             -74.0 TRUE  YES    
    ##  5 4 Avenue 36th St                  40.7             -74.0 TRUE  YES    
    ##  6 4 Avenue 36th St                  40.7             -74.0 TRUE  YES    
    ##  7 4 Avenue 36th St                  40.7             -74.0 TRUE  YES    
    ##  8 4 Avenue 36th St                  40.7             -74.0 TRUE  YES    
    ##  9 4 Avenue 45th St                  40.6             -74.0 TRUE  YES    
    ## 10 4 Avenue 45th St                  40.6             -74.0 TRUE  YES    
    ## # ℹ 3,931 more rows
    ## # ℹ 4 more variables: entrance_type <chr>, ada <lgl>, route_number <chr>,
    ## #   route_name <chr>
…
